[gd_scene load_steps=2 format=2]

[ext_resource path="res://Assets/Planets/Mercury_v1.png" type="Texture" id=1]

[node name="MoonIcon" type="Node2D"]

[node name="Sprite" type="Sprite" parent="."]
scale = Vector2( 0.1, 0.1 )
texture = ExtResource( 1 )
