[gd_scene load_steps=2 format=2]

[ext_resource path="res://Assets/Map/ShipIcon.png" type="Texture" id=1]

[node name="ShipIcon" type="Node2D"]

[node name="Sprite" type="Sprite" parent="."]
position = Vector2( 7, 0 )
rotation = 1.5708
texture = ExtResource( 1 )
