[gd_scene load_steps=2 format=2]

[ext_resource path="res://Assets/Planets/Sun_v1.png" type="Texture" id=1]

[node name="ShipIcon" type="Node2D"]

[node name="Sprite" type="Sprite" parent="."]
scale = Vector2( 0.05, 0.05 )
texture = ExtResource( 1 )
